<svg xmlns="http://www.w3.org/2000/svg" xmlns:xlink="http://www.w3.org/1999/xlink" width="25" height="17" viewBox="0 0 25 17">
  <defs>
    <style>
      .cls-1 {
        filter: url(#filter);
      }

      .cls-2 {
        fill: none;
        stroke: #fff;
        stroke-width: 2px;
        fill-rule: evenodd;
      }
    </style>
    <filter id="filter" filterUnits="userSpaceOnUse">
      <feFlood result="flood" flood-color="#51c1d9"/>
      <feComposite result="composite" operator="in" in2="SourceGraphic"/>
      <feBlend result="blend" in2="SourceGraphic"/>
    </filter>
  </defs>
  <g id="viewed-icon.svg" class="cls-1">
    <path id="Эллипс_2_копия_7" data-name="Эллипс 2 копия 7" class="cls-2" d="M543.5,1001c6.351,0,11.5,7.5,11.5,7.5s-5.149,7.5-11.5,7.5-11.5-7.5-11.5-7.5S537.149,1001,543.5,1001Zm0,5a2.5,2.5,0,1,1-2.5,2.5A2.5,2.5,0,0,1,543.5,1006Z" transform="translate(-531 -1000)"/>
    <path id="Эллипс_2_копия_8" data-name="Эллипс 2 копия 8" class="cls-2" d="M542.5,1006a2.5,2.5,0,0,1,2.5,2.5" transform="translate(-531 -1000)"/>
  </g>
</svg>
