[
	{
		"name": "Для ребенка",
		"link": "/"
	},
	{
		"name": "Для друга",
		"link": "/"
	},
	{
		"name": "Коллеге",
		"link": "/"
	},
	{
		"name": "Женщинам",
		"link": "/"
	},
	{
		"name": "Мужчинам",
		"link": "/"
	}

]